main\data\InputScanner.class
main\tasks\MeetingTask.class
main\captions\CaptionService.class
main\startMenu\DeleteTaskStartMenuChoice.class
main\tasks\ToDoTask$1.class
main\Constants.class
main\tasks\Attendee.class
main\startMenu\QuitStartMenuChoice.class
main\startMenu\StartMenuChoice.class
main\captions\SimpleCaptionService.class
main\data\ConsoleInputScanner.class
main\data\jdbc\DBConstants.class
main\TasksService.class
main\tasks\ToDoTask$2.class
main\data\InputHandler.class
main\StartMenu.class
main\data\Repository.class
main\tasks\ToDoTask.class
